/projects/Exercise11/src/main/java/QDTS/DataFromProperties.java
/projects/Exercise11/src/main/java/QDTS/PlayerException.java
/projects/Exercise11/src/main/java/QDTS/CompactDisc.java
/projects/Exercise11/src/main/java/QDTS/Library.java
/projects/Exercise11/src/main/java/QDTS/Playable.java
/projects/Exercise11/src/main/java/QDTS/Media.java
/projects/Exercise11/src/main/java/QDTS/MemoryDaemon.java
/projects/Exercise11/src/main/java/QDTS/Track.java
/projects/Exercise11/src/main/java/QDTS/Book.java
/projects/Exercise11/src/main/java/QDTS/OnlineMedia.java
/projects/Exercise11/src/main/java/QDTS/DigitalVideoDisc.java
/projects/Exercise11/src/main/java/QDTS/MediaCategoryChangeListener.java
/projects/Exercise11/src/main/java/QDTS/Order.java
/projects/Exercise11/src/main/java/QDTS/MediaPriceChangeListener.java
